Movielens
…
####Total Movie and User

#getting user count and movie count
edx %>% summarize(n_users = n_distinct(userId), n_movies = n_distinct(movieId))

##   n_users n_movies
## 1   69878    10677

####Top 10 Movies Ranked

edx %>% group_by(movieId, title) %>%
  summarize(count = n()) %>%
  arrange(desc(count))

## # A tibble: 10,677 x 3
## # Groups:   movieId [10,677]
##    movieId title                                                        count
##      <dbl> <chr>                                                        <int>
##  1     296 Pulp Fiction (1994)                                          31362
##  2     356 Forrest Gump (1994)                                          31079
##  3     593 Silence of the Lambs, The (1991)                             30382
##  4     480 Jurassic Park (1993)                                         29360
##  5     318 Shawshank Redemption, The (1994)                             28015
##  6     110 Braveheart (1995)                                            26212
##  7     457 Fugitive, The (1993)                                         25998
##  8     589 Terminator 2: Judgment Day (1991)                            25984
##  9     260 Star Wars: Episode IV - A New Hope (a.k.a. Star Wars) (1977) 25672
## 10     150 Apollo 13 (1995)                                             24284
## # ... with 10,667 more rows
…
